<?xml version="1.0" encoding="UTF-8" ?>
<testsuites>
 <testsuite name="Fund List, Ammend Regular payments or Top up with an account which cannot do so." timestamp="2016-06-10T16:21:29" hostname="localhost" time="11.279" errors="0" tests="10" skipped="0" disabled="0" failures="0">
  <testcase classname="Fund List, Ammend Regular payments or Top up with an account which cannot do so." name="should show a call to action when attempting to Increase Regular payments" time="5.161" />
  <testcase classname="Fund List, Ammend Regular payments or Top up with an account which cannot do so." name="should display the correct Call us number for Regular payments" time="0.341" />
  <testcase classname="Fund List, Ammend Regular payments or Top up with an account which cannot do so." name="should display the correct error message for Regular payments" time="0.236" />
  <testcase classname="Fund List, Ammend Regular payments or Top up with an account which cannot do so." name="should have the correct labels on the Cancel and Call buttons" time="0.312" />
  <testcase classname="Fund List, Ammend Regular payments or Top up with an account which cannot do so." name="should be dismissed on click of the Cancel button" time="0.728" />
  <testcase classname="Fund List, Ammend Regular payments or Top up with an account which cannot do so." name="should show a call to action when attempting to Top up" time="0.96" />
  <testcase classname="Fund List, Ammend Regular payments or Top up with an account which cannot do so." name="should display the correct Call us number for Regular payments" time="0.223" />
  <testcase classname="Fund List, Ammend Regular payments or Top up with an account which cannot do so." name="should display the correct error message for Regular payments" time="0.231" />
  <testcase classname="Fund List, Ammend Regular payments or Top up with an account which cannot do so." name="should have the correct labels on the Cancel and Call buttons" time="0.304" />
  <testcase classname="Fund List, Ammend Regular payments or Top up with an account which cannot do so." name="should be dismissed on click of the Cancel button" time="0.71" />
 </testsuite>
 <testsuite name="Fund List, No Sim Card, Ammend Regular payments or Top up with an account which cannot do so." timestamp="2016-06-10T16:21:40" hostname="localhost" time="11.658" errors="0" tests="10" skipped="0" disabled="0" failures="0">
  <testcase classname="Fund List, No Sim Card, Ammend Regular payments or Top up with an account which cannot do so." name="should show a call to action when attempting to Increase Regular payments" time="5.306" />
  <testcase classname="Fund List, No Sim Card, Ammend Regular payments or Top up with an account which cannot do so." name="should display the correct Call us number for Regular payments" time="0.234" />
  <testcase classname="Fund List, No Sim Card, Ammend Regular payments or Top up with an account which cannot do so." name="should display the correct error message for Regular payments" time="0.226" />
  <testcase classname="Fund List, No Sim Card, Ammend Regular payments or Top up with an account which cannot do so." name="should only have a Close button." time="0.291" />
  <testcase classname="Fund List, No Sim Card, Ammend Regular payments or Top up with an account which cannot do so." name="should be dismissed on click of the Close button" time="0.736" />
  <testcase classname="Fund List, No Sim Card, Ammend Regular payments or Top up with an account which cannot do so." name="should show a call to action when attempting to Top up" time="0.942" />
  <testcase classname="Fund List, No Sim Card, Ammend Regular payments or Top up with an account which cannot do so." name="should display the correct Call us number for Regular payments" time="0.229" />
  <testcase classname="Fund List, No Sim Card, Ammend Regular payments or Top up with an account which cannot do so." name="should display the correct error message for Regular payments" time="0.236" />
  <testcase classname="Fund List, No Sim Card, Ammend Regular payments or Top up with an account which cannot do so." name="should only have a Close Button." time="0.285" />
  <testcase classname="Fund List, No Sim Card, Ammend Regular payments or Top up with an account which cannot do so." name="should be dismissed on click of the Close button" time="0.751" />
 </testsuite>
 <testsuite name="Fund List Page for a normal Pension" timestamp="2016-06-10T16:21:52" hostname="localhost" time="14.019" errors="0" tests="13" skipped="0" disabled="0" failures="0">
  <testcase classname="Fund List Page for a normal Pension" name="should display a header which is the name of the Fund" time="0.124" />
  <testcase classname="Fund List Page for a normal Pension" name="should display the Total value in the hero section" time="0.186" />
  <testcase classname="Fund List Page for a normal Pension" name="should display the Plan number in the hero section" time="0.192" />
  <testcase classname="Fund List Page for a normal Pension" name="should display the correct headers for the Fund details" time="0.368" />
  <testcase classname="Fund List Page for a normal Pension" name="should display the correct values for the Fund details" time="0.356" />
  <testcase classname="Fund List Page for a normal Pension" name="should have a back button which takes me to the choosePlan page" time="0.426" />
  <testcase classname="Fund List Page for a normal Pension" name="should have a list of Investments" time="0.157" />
  <testcase classname="Fund List Page for a normal Pension" name="Opening an Investment should take me to the Fund detail page" time="0.509" />
  <testcase classname="Fund List Page for a normal Pension" name="should have an Important Information link, which opens the Important infomation for that Plan" time="0.996" />
  <testcase classname="Fund List Page for a normal Pension" name="Should have a Floating action button, which shows links for Top up and Increase regular payment" time="0.937" />
  <testcase classname="Fund List Page for a normal Pension" name="Should have a Top Up link which takes me to the Top up page" time="1.34" />
  <testcase classname="Fund List Page for a normal Pension" name="Should have an Increase regular payment link which takes me to the Increase regular payment page" time="1.076" />
  <testcase classname="Fund List Page for a normal Pension" name="Should have a Recent payments link which takes me to the Recent payments page" time="1.193" />
 </testsuite>
 <testsuite name="Fund List page, for a Saving. " timestamp="2016-06-10T16:22:06" hostname="localhost" time="13.879" errors="0" tests="13" skipped="0" disabled="0" failures="0">
  <testcase classname="Fund List page, for a Saving. " name="should display a header which is the name of the Fund" time="0.116" />
  <testcase classname="Fund List page, for a Saving. " name="should display the Total value in the hero section" time="0.181" />
  <testcase classname="Fund List page, for a Saving. " name="should display the Plan number in the hero section" time="0.194" />
  <testcase classname="Fund List page, for a Saving. " name="should display the correct headers for the Fund details" time="0.366" />
  <testcase classname="Fund List page, for a Saving. " name="should display the correct values for the Fund details" time="0.362" />
  <testcase classname="Fund List page, for a Saving. " name="should have a back button which takes me to the choosePlan page" time="0.406" />
  <testcase classname="Fund List page, for a Saving. " name="should have a list of Investments" time="0.151" />
  <testcase classname="Fund List page, for a Saving. " name="Opening an Investment should take me to the Fund detail page" time="0.578" />
  <testcase classname="Fund List page, for a Saving. " name="should have an Important Information link, which opens the Important infomation for that Plan" time="1.008" />
  <testcase classname="Fund List page, for a Saving. " name="Should have a Floating action button, which shows links for Top up and Increase regular payment" time="0.966" />
  <testcase classname="Fund List page, for a Saving. " name="Should have a Top Up link which takes me to the Top up page" time="1.382" />
  <testcase classname="Fund List page, for a Saving. " name="Should have an Increase regular payment link which takes me to the Increase regular payment page" time="1.068" />
  <testcase classname="Fund List page, for a Saving. " name="Should have a Recent payments link which takes me to the Recent payments page" time="1.054" />
 </testsuite>
 <testsuite name="Investments page - with profits fund." timestamp="2016-06-10T16:22:20" hostname="localhost" time="6.401" errors="0" tests="4" skipped="0" disabled="0" failures="0">
  <testcase classname="Investments page - with profits fund." name="should display the Total value in the hero section" time="4.641" />
  <testcase classname="Investments page - with profits fund." name="should display the Plan number in the hero section" time="0.194" />
  <testcase classname="Investments page - with profits fund." name="should the with profits label within the fund information" time="0.194" />
  <testcase classname="Investments page - with profits fund." name="should not be a link to any fund information" time="0.237" />
 </testsuite>
 <testsuite name="Fund List Page for a ISA Plan" timestamp="2016-06-10T16:22:26" hostname="localhost" time="11.952" errors="0" tests="10" skipped="0" disabled="0" failures="0">
  <testcase classname="Fund List Page for a ISA Plan" name="should display a header which is the name of the Fund" time="0.156" />
  <testcase classname="Fund List Page for a ISA Plan" name="should have a back button which takes me to the choosePlan page" time="0.529" />
  <testcase classname="Fund List Page for a ISA Plan" name="should have an Important Information link, which opens the Important infomation for that Plan" time="1.696" />
  <testcase classname="Fund List Page for a ISA Plan" name="should display a portfolio card" time="0.221" />
  <testcase classname="Fund List Page for a ISA Plan" name="should display the Total value in the portfolio card" time="0.224" />
  <testcase classname="Fund List Page for a ISA Plan" name="should have a list of Investments, within the Funds header" time="0.5" />
  <testcase classname="Fund List Page for a ISA Plan" name="Opening an Investment should take me to the Fund detail page" time="0.683" />
  <testcase classname="Fund List Page for a ISA Plan" name="should have a list of Lv3 Investments, within the Other investments header" time="0.483" />
  <testcase classname="Fund List Page for a ISA Plan" name="opening a LV3 fund should take me to a new page for that Investment" time="0.447" />
  <testcase classname="Fund List Page for a ISA Plan" name="should have a Recent payments card, with a link to the Recent Payments page." time="1.045" />
 </testsuite>
 <testsuite name="Fund List Page for a SIPP Plan" timestamp="2016-06-10T16:22:38" hostname="localhost" time="16.117" errors="0" tests="12" skipped="1" disabled="0" failures="1">
  <testcase classname="Fund List Page for a SIPP Plan" name="should display a header which is the name of the Fund" time="0.187" />
  <testcase classname="Fund List Page for a SIPP Plan" name="should have a back button which takes me to the choosePlan page" time="0.436" />
  <testcase classname="Fund List Page for a SIPP Plan" name="should have an Important Information link, which opens the Important infomation for that Plan" time="1.799" />
  <testcase classname="Fund List Page for a SIPP Plan" name="should display a portfolio card" time="0.23" />
  <testcase classname="Fund List Page for a SIPP Plan" name="should display the Total value in the portfolio card" time="0.215">
   <failure type="toEqual" message="Expected &apos;£615,479.30&apos; to equal &apos;£668,056.94&apos;."><![CDATA[Error: Failed expectation
    at Object.<anonymous> (/Users/stefanomartinelli/workspace/standard-life/mobile-hybrid-standardlife-uk/test/e2e/fundlist/sipp.spec.js:46:47)
    at /Users/stefanomartinelli/workspace/standard-life/mobile-hybrid-standardlife-uk/node_modules/jasminewd2/index.js:96:23
    at new Promise (/Users/stefanomartinelli/workspace/standard-life/mobile-hybrid-standardlife-uk/node_modules/selenium-webdriver/lib/promise.js:1043:7)
    at controlFlowExecute (/Users/stefanomartinelli/workspace/standard-life/mobile-hybrid-standardlife-uk/node_modules/jasminewd2/index.js:82:18)
    at TaskQueue.execute_ (/Users/stefanomartinelli/workspace/standard-life/mobile-hybrid-standardlife-uk/node_modules/selenium-webdriver/lib/promise.js:2790:14)
    at TaskQueue.executeNext_ (/Users/stefanomartinelli/workspace/standard-life/mobile-hybrid-standardlife-uk/node_modules/selenium-webdriver/lib/promise.js:2773:21)
    at /Users/stefanomartinelli/workspace/standard-life/mobile-hybrid-standardlife-uk/node_modules/selenium-webdriver/lib/promise.js:2652:27
    at /Users/stefanomartinelli/workspace/standard-life/mobile-hybrid-standardlife-uk/node_modules/selenium-webdriver/lib/promise.js:639:7
    at process._tickCallback (node.js:406:9)]]>
   </failure>
  </testcase>
  <testcase classname="Fund List Page for a SIPP Plan" name="should have a list of Investments, within the Insured funds header" time="0.466" />
  <testcase classname="Fund List Page for a SIPP Plan" name="Opening an Investment should take me to the Fund detail page" time="0.65" />
  <testcase classname="Fund List Page for a SIPP Plan" name="should have a list of Mutual funds, within the Mutual funds header" time="1.685" />
  <testcase classname="Fund List Page for a SIPP Plan" name="should have a list of Lv3 Investments, within the Other investments header" time="0.528" />
  <testcase classname="Fund List Page for a SIPP Plan" name="opening a LV3 fund should take me to a new page for that Investment" time="0.485" />
  <testcase classname="Fund List Page for a SIPP Plan" name="Should have a Bank account card with a link which takes me to the Bank account page" time="3.129" />
  <testcase classname="Fund List Page for a SIPP Plan" name="Should show Transaction details when selecting a transaction from the Bank account list" time="0">
   <skipped message="Temporarily disabled with xit" />
  </testcase>
 </testsuite>
</testsuites>